Phuong’s study
…
> library(purrr)

Socio-demo-economic data from GSO are available in the following package:

> library(gso)

There is a huge amount of data in this package and it may not be super easy to find what you are looking for. To make it easier, load the content data frame:

> data(content)

content is a big data frame of the metadata of the data:

> content
# A tibble: 335 x 8
   category                  subcategory data_frame                    data_name  time_resolution  time_range sp_resolution data         
   <chr>                     <chr>       <chr>                         <chr>      <chr>            <chr>      <chr>         <named list> 
 1 Administrative Unit, Lan… Sea level   Average of sea level at some… sea_level… month            2014-2016  station       <df[,4] [576…
 2 Administrative Unit, Lan… Sea level   Average of sea level at some… sea_level… year             2013-2016  station       <df[,3] [64 …
 3 Administrative Unit, Lan… Climate     Change in average precipitat… climate_1  year             2010-2016  station       <df[,9] [35 …
 4 Administrative Unit, Lan… Land use    Land use (As of 31 Februarry… land_use_1 single time poi… 28-02-2015 country       <df[,96] [1 …
 5 Administrative Unit, Lan… Land use    Land use by province (As of … land_use_2 single time poi… 31-12-2015 province      <df[,6] [63 …
 6 Administrative Unit, Lan… Climate     Mean air temperature at some… climate_2  year             2006-2016  station       <df[,3] [154…
 7 Administrative Unit, Lan… Climate     Mean humidity at some statio… climate_3  year             2006-2016  station       <df[,3] [165…
 8 Administrative Unit, Lan… Climate     Monthly mean air temperature… climate_4  month            2002-2016  station       <df[,4] [2,7…
 9 Administrative Unit, Lan… Climate     Monthly mean humidity at som… climate_5  month            2002-2016  station       <df[,4] [2,7…
10 Administrative Unit, Lan… Climate     Monthly rainfall at some sta… climate_6  month            2002-2016  station       <df[,4] [2,7…
# … with 325 more rows
…
